%YAML 1.1
%TAG !u! tag:unity3d.com,2011:
--- !u!114 &11400000
MonoBehaviour:
  m_ObjectHideFlags: 0
  m_CorrespondingSourceObject: {fileID: 0}
  m_PrefabInstance: {fileID: 0}
  m_PrefabAsset: {fileID: 0}
  m_GameObject: {fileID: 0}
  m_Enabled: 1
  m_EditorHideFlags: 0
  m_Script: {fileID: 11500000, guid: 355f2ada77633c547846d9b39b2e532d, type: 3}
  m_Name: Jupiter
  m_EditorClassIdentifier: 
  _planetName: Jupiter
  _gravity: 24.5
  _planetColor: {r: 1, g: 0.63038385, b: 0.08962262, a: 0}
